^C:\USERS\VIT-O\SOURCE\REPOS\HW 17.5\HW 17.5.CPP
C:\USERS\VIT-O\SOURCE\REPOS\HW 17.5\DEBUG\VC142.PDB
C:\USERS\VIT-O\SOURCE\REPOS\HW 17.5\DEBUG\VC142.IDB
C:\USERS\VIT-O\SOURCE\REPOS\HW 17.5\DEBUG\HW 17.5.OBJ
